Hide tunic,,5,-----------,Armadura inicial dos personagens
Karate gi,,11,-----------,Comprada no mercado em Truce
Bronze mail,,16,-----------,Em Guardia Castle
Maiden suit,,18,-----------,Em Cathedral 600AD
Iron suit,,25,-----------,Comprada no mercado em 1000AD
Titan vest,,32,-----------,Em Proto Dome 2300AD
Taban vest,,33,Speed +2 /defende Fire,Com pai de Lucca após vencer Heckran
Gold suit,,39,-----------,Em Denadoro Mts
Ruby vest,,45,Dano Fire cai 50%,Em feita em 65000000BC
Dark mail,,45,Defesa mágica +5,Em Magus Castle
White vest,,45,Absorve 50% Lighing,Em Elder's House 600AD
Black vest,,45,Absorve 50% Shadow,Em Elder's House 600AD
Blue vest,,45,Absorve 50% Water,Truce Inn 600AD
Red vest,,45,Absorve 50% Fire,Guardia Castle 600AD
Mist robe,,54,-----------,Em Magus Castle
Meso mail,,52,-----------,Em Dactil Nest
Lumin robe,,63,Defesa mágica +5,Em Arris Dome
Flash mail,,64,-----------,-----------
White mail,,70,Absorve Lighing,Em Mayor's Manior 1000AD
Black mail,,70,Absorve Shadow,Em Mayor's Manior 1000AD
Blue mail,,70,Absorve Water,Truce Inn 1000AD
Red mail,,70,Absorve Fire,Guardia Castle 1000AD
Lode vest,,71,-----------,Em Mts Woe
Aeon suit,,75,-----------,Em Ocean Palace
Raven armor,,76,-----------,Armadura inicial de Magus
Ruby armor,,78,Dano fire cai 80%,Fabricado em 65000000BC
Taban suit,,79,speed +3/defende Fire,Feito por Taban
Zodiac cape,,80,Defesa mágica +10,-----------
Nova armor,,82,Protege status,Em Heros Grave / Northen Ruins 600AD
Moon armor,,85,Defesa mágica +10,Em Heros Grave / Northen Ruins1000AD
Gloom cape,,84,-----------,Ozzy Fort
Prism dress,,99,Ataque mágico cai 1/3,Feita com a Rainbow Shell