CHRONO,Mop,Espada,1,-----------,"Roubando do ""NU"" em 65.00000 BC"
CHRONO,Wood Sword,Espada,3,-----------,Arma inicial de Crono já vem com ele.
CHRONO,Iron Blade,Espada,7,-----------,Cathedral em 600AD /Market 600AD
CHRONO,Steel Saber,Espada,15,-----------,Cathedral em 600AD
CHRONO,Lod Sword,Espada,20,-----------,Na prisão / Melchior em Leene Square
CHRONO,Bolt Sword,Espada,25,-----------,Em Sewer
CHRONO,Red Katana,Espada,30,mágica +2,Comprada no Market em 1000AD em Trucce
CHRONO,Flint Edge,Espada,40,-----------,Fabricada em 65000000BC
CHRONO,Slasher,Espada,43,velocidade +2,Ganha apos derrotar Slasher
CHRONO,Aeon Blade,Espada,70,-----------,Feita 65000000BC depois de derrotar Magus
CHRONO,Demon Edge,Espada,90,1.5x dano em inimigo mágico,Comprada em beyonde Village
CHRONO,Alloy Blade,Espada,110,-----------,Roubando do Batman Imp
CHRONO,Star Sword,Espada,125,-----------,Em Ocean Palace
CHRONO,Vedic Blade,Espada,135,-----------,Death Peak
CHRONO,Kali Blade,Espada,150,-----------,Em Northen Ruins ou Heros Grave 600AD
CHRONO,Slasher2,Espada,155,-----------,Roubando de Slasher 2
CHRONO,Shiva Edge,Espada,170,4x dano crítico,Heros Grave 1000AD
CHRONO,Rainbow,Espada,220,70% de dano crítico,Criada a partir da Rainbow Shell em 600 A.C.
--------------------------------------------------------------------------------------
MARLE,Bronze Bow,Besta,3,-----------,Já vem com ela weapon inicial
MARLE,Iron Bow,Besta,15,-----------,Comprada no mercado em 1000AD.
MARLE,Lode Bow,Besta,20,-----------,Achada em Beyond Ruins
MARLE,Robin Bow,Besta,25,-----------,Em Market em Trucce 1000AD
MARLE,Sage Bow,Besta,40,-----------,Feito em 650000000BC
MARLE,Dream Bow,Besta,60,-----------,Feito em 650000000BC depois de derrotar Magus
MARLE,Comet Arrow,Besta,80,-----------,Comprada em Beyond Village
MARLE,Sonic Arrow,Besta,100,pode deixar o inimigo lento,Em Ocean Palace
MARLE,Siren,Besta,140,pode paralizar o inimigo,Em Heros Grave 600AD
MARLE,Valkerye,Besta,180,-----------,Em Heros Grave 1000AD
--------------------------------------------------------------------------------------
LUCCA,Air Gun,Pistola,5,-----------,Arma inicial de Lucca
LUCCA,Dart Gun,Pistola,7,-----------,Arma inicial de Crono já vem com ele.
LUCCA,Auto Gun,Pistola,15,-----------,Comprada em Arris Dome
LUCCA,Plasma Gun,Pistola,25,pode paralizar máquinas,Em factory Ruins 2300AD
LUCCA,Ruby Gun,Pistola,40,-----------,Fabricada em 65000000BC
LUCCA,Dream Gun,Pistola,60,-----------,Fabricada em 65000000BC depos de derrotar Magus
LUCCA,Megablast,Pistola,80,-----------,Comprada em Beyond Village
LUCCA,Shock Wave,Pistola,110,pode causar confusão,Em Ocean Palace
LUCCA,Wondershot,Pistola,250,o dano pode variar,Feita com a Sun Stone 1000AD
--------------------------------------------------------------------------------------
FROG,Bronze Edge,Espada Longa,6,-----------,Arma inicial de Frog já vem com ele
FROG,Iron Sword,Espada Longa,10,-----------,Encontrada na Cathedral
FROG,Flash Blade,Espada Longa,90,-----------,Comprada em Terra Cave
FROG,Massamune (1),Espada Longa,,-----------,Fabricada por Melchior
FROG,Pearl Edge,Espada Longa,105,1.5x dano em inimigos mágicos,Comprada em Kajardo Nu
FROG,Rune Blade,Espada Longa,120,mágica +4,Achada em Ocean Palace
FROG,Brave Sword,Espada Longa,135,-----------,Achada em Death Peak
FROG,Demon Hit,Espada Longa,150,2x dano em inimigos mágicos,Em Ocean Palace
FROG,Massamune (2),Espada Longa,200,2x dano em inimigos mágicos,Criada após achar o tumulo de Cyrus
--------------------------------------------------------------------------------------
ROBO,Crisis Arm,Braço,1,dano muda se HP menor que 10,Matando Mother-Brain em Geno Dome
ROBO,Tin Arm,Braço,20,-----------,Arma inicial do Robo já vem com ele.
ROBO,Hammer Arm,Braço,25,-----------,Factory
ROBO,Mirage Hand,Mão,30,-----------,Em Denadoro Mts
ROBO,Stone Arm,Braço,40,-----------,Fabricada em 65000000BC
ROBO,Doom Finger,Dedo,50,-----------,Magus Castle
ROBO,Magma Hand,Mão,70,-----------,Feita em 65000000BC apos derrotar magus
ROBO,Megaton Arm,Braço,90,-----------,Comprado em Terra Cave
ROBO,Big Hand,Mão,105,-----------,Comprada em Kajar
ROBO,Kaiser Arm,Braço,120,-----------,Ocean Palace
ROBO,Giga Arm,Braço,135,-----------,Death Peak
ROBO,Terra Arm,Braço,150,-----------,Matando Mother-Brain em Geno Dome
--------------------------------------------------------------------------------------
AYLA,Fist(1),punho,--,-----------,---------
AYLA,Fist(2),punho,--,(+)25% dano crítico,ganha no level 24
AYLA,Fist(3),punho,--,(+)30% dano crítico,ganha no level 48
AYLA,Iron Fist,punho,--,(+)35% dano crítico aleatoriamenet confunde o inimigo,ganha no level 73
AYLA,Bronze Fist,punho,--,"(+)10% dano crítico - 9999 de dano crítico",ganha no level 96
--------------------------------------------------------------------------------------
MAGUS,Dark Scythe,Foice,120,-----------,Arma inicial de Magus.
MAGUS,Hurricane,Foice,135,-----------,Comprada em Last Village.
MAGUS,Star Scythe,Foice,150,-----------,Em Death Peak
MAGUS,Doom Sickle,Foice,160,ataque sobe matando inimigos,Em Ozzy Fort
--------------------------------------------------------------------------------------
